{
  "result": {
    "item": "lucraftcore:plate_tin"
  },
  "ingredients": [
    {
      "item": "lucraftcore:hammer",
      "data": 32767
    },
    {
      "item": "lucraftcore:ingot_tin"
    },
    {
      "item": "lucraftcore:ingot_tin"
    }
  ],
  "conditions": [
    {
      "item": "lucraftcore:plate_tin",
      "type": "minecraft:item_exists"
    },
    {
      "item": "lucraftcore:hammer",
      "type": "minecraft:item_exists"
    },
    {
      "item": "lucraftcore:ingot_tin",
      "type": "minecraft:item_exists"
    }
  ],
  "type": "minecraft:crafting_shapeless",
  "group": "lucraftcore:ingots_to_plate"
}